{
   "version" : 2,
   "controller" : {
   },
   "workers" : [
      {
         "type" : "router",
         "transports" : [
            {
               "type" : "websocket",
               "endpoint" : {
                  "type" : "tcp",
                  "port" : 9000
               }
            },{
               "type" : "web",
               "endpoint" : {
                  "type" : "tcp",
                  "port" : "$PORT"
               },
               "paths" : {
                  "junction" : {
                     "type" : "websocket"
                  },
                  "hubot": {
                     "type": "reverseproxy",
                     "host": "localhost:6000",
                     "path": "/"
                  },
                  "/" : {
                     "type" : "wsgi",
                     "object" : "application",
                     "module" : "gestalt.web.wsgi"
                  }
               }
            }
         ],
         "realms" : [
            {
               "name" : "uchikoma",
               "roles" : [{
                     "name" : "backend",
                     "permissions" : [{
                           "allow" : {
                              "publish" : true,
                              "call" : true,
                              "register" : true,
                              "subscribe" : true
                           },
                           "uri" : "uchikoma.*"
                     }]
                  },{
                     "name" : "authorizer",
                     "permissions" : [
                        {
                           "uri" : "uchikoma.junction.uplink",
                           "allow" : {
                              "register" : true
                           }
                        }
                     ]
                  },{
                     "name" : "frontend",
                     "authorizer" : "uchikoma.junction.uplink"
                  },{
                     "name" : "anonymous",
                     "permissions" : [
                        {
                           "allow" : {
                              "call" : true,
                              "publish" : true,
                              "subscribe" : true,
                              "register" : true
                           },
                           "match" : "prefix",
                           "cache" : true,
                           "uri" : "uchikoma.junction.uplink",
                           "disclose" : {
                              "publisher" : false,
                              "caller" : false
                           }
                        }
                     ]
               }]
            }
         ]
      },{
         "type" : "container",
         "components" : [{
               "type": "class",
               "classname": "gestalt.hub.uplink.Authority",
               "realm": "uchikoma",
               "transport" : {
                  "type" : "websocket",
                  "url" : "ws://127.0.0.1:9000",
                  "endpoint" : {
                     "type" : "tcp",
                     "port" : 9000,
                     "host" : "127.0.0.1"
                  }
               }
         },{
               "type": "class",
               "classname": "gestalt.hub.reactor.Lobby",
               "realm": "uchikoma",
               "transport" : {
                  "type" : "websocket",
                  "url" : "ws://127.0.0.1:9000",
                  "endpoint" : {
                     "type" : "tcp",
                     "port" : 9000,
                     "host" : "127.0.0.1"
                  }
               }
         }]
      },{
        "type": "guest",
        "executable": "node",
        "arguments": [
            "server.js"
        ],
        "options": {
            "workdir": "../files/scripts/graffeine",
            "env": {
                "inherit": true,
                "vars": {
                    "PORT": "7000"
                }
            },
            "watch": {
                "directories": [
                    "../files/scripts/graffeine"
                ],
                "action": "restart"
            }
        }
     },{
        "type": "guest",
        "executable": "hubot",
        "arguments": ["-a", "slack"],
        "options": {
            "workdir": "../../hubot/",
            "env": {
                "inherit": true,
                "vars": {
                    "PORT": "9109"
                }
            },
            "watch": {
                "directories": [
                    "../../hubot"
                ],
                "action": "restart"
            }
        }
      }
   ]
}
