{
    "name": "neurochip-nucleon",
    "description": "NeuroChip :: Nucleon",
    "keywords": [
        "slack",
        "bot",
        "a.i",
        "uchikoma"
    ],
    "website": "https://github.com/neurochip/nucleon",
    "repository": "https://github.com/neurochip/nucleon.git",
    "scripts": {
        "postdeploy": "boot/strap "
    },
    "success_url": "/"
}
