{
    "env": {
        "HUBOT_IRC_SERVER": {
            "description": "IRC server to connect to",
            "required": true,
            "value": "irc.freenode.net"
        },
        "HUBOT_IRC_ROOMS": {
            "description": "IRC rooms for subscriptions.",
            "required": true
        },
        "HUBOT_IRC_NICK": {
            "description": "IRC nickname to connect with",
            "required": true
        }
    }
}
